2024-02-06-IRT-kennsla
…
2024-02-06-IRT-kennsla

Notum tidyvers til að vinna með gögnin

library(tidyverse)

## Les inn pisa gögn
atrida_safn <- read_csv("data/pisa_math.csv")

## Skoða gögnin
atrida_safn

# A tibble: 565 × 11
   M192Q01 M406Q01 M406Q02 M423Q01 M496Q01 M496Q02 M564Q01 M564Q02 M571Q01
     <dbl>   <dbl>   <dbl>   <dbl>   <dbl>   <dbl>   <dbl>   <dbl>   <dbl>
 1       1       1       1       0       1       1       1       1       1
 2       0       1       0       1       0       0       1       0       0
 3       1       1       0       0       0       0       1       1       0
 4       1       0       0       1       0       1       1       1       0
 5       1       1       1       1       0       0       1       1       1
 6       1       0       0       1       0       1       1       0       0
 7       1       0       0       1       0       0       0       0       0
 8       0       0       0       1       0       1       0       0       0
 9       0       1       1       1       1       1       1       0       0
10       0       0       0       0       0       0       0       0       0
# ℹ 555 more rows
# ℹ 2 more variables: M603Q01 <dbl>, M603Q02 <dbl>
…
